…
    ##  chr "https://github.com/ucb-stat133/stat133-hws/raw/master/data/nba2018-players.csv"

``` r
library(readr)
```

    ## Warning: package 'readr' was built under R version 3.4.4

``` r
column_types <- "ccfiiiicdiiiiii"
dat <- read_csv("datafile.csv", col_types = column_types)
dat
```

    ## # A tibble: 477 x 15
    ##    player team  position height weight   age experience college salary
    ##    <chr>  <chr> <fct>     <int>  <int> <int>      <int> <chr>    <dbl>
    ##  1 Al Ho… BOS   C            82    245    30          9 Univer… 2.65e7
    ##  2 Amir … BOS   PF           81    240    29         11 <NA>    1.20e7
    ##  3 Avery… BOS   SG           74    180    26          6 Univer… 8.27e6
    ##  4 Demet… BOS   PG           73    201    22          0 Univer… 1.45e6
    ##  5 Geral… BOS   SF           79    205    31          9 <NA>    1.41e6
    ##  6 Isaia… BOS   PG           69    185    27          5 Univer… 6.59e6
    ##  7 Jae C… BOS   SF           78    235    26          4 Marque… 6.29e6
    ##  8 James… BOS   SG           78    215    21          2 Univer… 1.83e6
    ##  9 Jayle… BOS   SF           79    225    20          0 Univer… 4.74e6
    ## 10 Jonas… BOS   PF           82    231    29          6 <NA>    5.00e6
    ## # … with 467 more rows, and 6 more variables: games <int>, minutes <int>,
    ## #   points <int>, points3 <int>, points2 <int>, points1 <int>
…
``` r
team_salaries0 = summarise(
  group_by(dat, team),
  total_salary = sum(salary)/1000000,
  mean_salary = mean(salary)/1000000,
  median_salary = median(salary)/1000000
)

team_salaries = arrange(team_salaries0, desc(total_salary))
team_salaries
```

    ## # A tibble: 30 x 4
    ##    team  total_salary mean_salary median_salary
    ##    <chr>        <dbl>       <dbl>         <dbl>
    ##  1 CLE           127.        7.07          2.03
    ##  2 LAC           115.        7.65          3.5 
    ##  3 MEM           109.        6.81          3.12
    ##  4 TOR           108.        7.23          5.3 
    ##  5 SAS           105.        6.59          2.22
    ##  6 MIL           105.        5.51          2.57
    ##  7 ORL           104.        5.78          4.13
    ##  8 DET           103.        6.87          4.62
    ##  9 POR           102.        7.88          6.67
    ## 10 WAS           101.        6.72          3.73
    ## # … with 20 more rows
…
``` r
library("tidyverse")

team_points0 = summarise(
  group_by(dat, team),
  total_points = sum(points),
  mean_points = mean(points),
  median_points = median(points)
)

team_points = arrange(team_points0, desc(total_points))
team_points
```

    ## # A tibble: 30 x 4
    ##    team  total_points mean_points median_points
    ##    <chr>        <int>       <dbl>         <dbl>
    ##  1 GSW           9491        593.          408.
    ##  2 HOU           9065        648.          568 
    ##  3 LAC           8911        594.          538 
    ##  4 BOS           8857        590.          515 
    ##  5 DEN           8783        517.          587 
    ##  6 CLE           8770        487.          265 
    ##  7 SAS           8637        540.          490 
    ##  8 IND           8618        539.          370.
    ##  9 MIN           8591        614.          348 
    ## 10 WAS           8574        572.          330 
    ## # … with 20 more rows
…
