…
    ##   sd(points3)
    ## 1    55.11807

``` r
# use summarise() and group_by() to display the median of three-points, by team.
summarise(
  group_by(dat, team),
  median(points3)
)
```

    ## # A tibble: 30 x 2
    ##    team  `median(points3)`
    ##    <chr>             <dbl>
    ##  1 ATL                32  
    ##  2 BOS                46  
    ##  3 BRK                36  
    ##  4 CHI                28.5
    ##  5 CHO                13  
    ##  6 CLE                26.5
    ##  7 DAL                18  
    ##  8 DEN                46  
    ##  9 DET                28  
    ## 10 GSW                10.5
    ## # … with 20 more rows
…
